[
    {
        "Sl.No": "1.",
        "E-Resources": "Cambridge University Press ",
        "Website Link": "http://journals.cambridge.org/"
    },
    {
        "Sl.No": "2.",
        "E-Resources": "Economic & Political Weekly ",
        "Website Link": "http://www.epw.in/"
    },
    {
        "Sl.No": "3.",
        "E-Resources": "Emerald ",
        "Website Link": "http://www.emeraldinsight.com/"
    },
    {
        "Sl.No": "4.",
        "E-Resources": "ISID ",
        "Website Link": "http://isid.org.in/"
    },
    {
        "Sl.No": "5.",
        "E-Resources": "JCCC ",
        "Website Link": "http://www.jccc-ugcinfonet.in/"
    },
    {
        "Sl.No": "6.",
        "E-Resources": "JSTOR ",
        "Website Link": "http://www.jstor.org/"
    },
    {
        "Sl.No": "7.",
        "E-Resources": "Oxford University Press ",
        "Website Link": "http://www.oxfordjournals.org/"
    },
    {
        "Sl.No": "8.",
        "E-Resources": "Project Muse ",
        "Website Link": "http://muse.jhu.edu/browse/"
    },
    {
        "Sl.No": "9.",
        "E-Resources": "Springer Link ",
        "Website Link": "http://link.springer.com/"
    },
    {
        "Sl.No": "10.",
        "E-Resources": "Taylor & Francis ",
        "Website Link": "http://www.tandfonline.com/"
    },
    {
        "Sl.No": "11.",
        "E-Resources": "Wiley-Blackwell ",
        "Website Link": "http://onlinelibrary.wiley.com/"
    },
    {
        "Sl.No": "12.",
        "E-Resources": "World eBook Library ",
        "Website Link": "http://community.worldlibrary.in/?AffiliateKey=NDL-QA1179"
    }
]