[
    "Angels/VC/Incubators",
    "Animation",
    "Application Maintenance",
    "Business and Corporate Research",
    "Content Development and Publishing",
    "Custom Application Development",
    "Customer Interaction Services",
    "Document Management",
    "E-Business / Web Services / Others",
    "Embedded Solutions",
    "Finance and Accounting",
    "Hardware Deployment and support",
    "HR Administration",
    "Industrial automation",
    "IT Consulting",
    "IT Training and Education",
    "Legal Services (incl. IP mgmt services)",
    "Medical Transcription",
    "Network & Desktop Outsourcing",
    "Offshore Product Development",
    "Pharmaceuticals & Biotechnology",
    "Plant / facility design / maintenance",
    "Procurement and Logistics",
    "Product Design Engineering",
    "Resale of software",
    "Software Deployment and support",
    "Software product license revenues",
    "Software Testing (Independent)",
    "Startup",
    "System Integration"
]