{
    "M.Sc. in Statistics": "http://www.aus.ac.in/iqac/wp-content/uploads/sites/88/2021/08/PG-Statistics-Syllabus-of-2015-CBCS-with-Learning-Outcomes.pdf",
    "Master of Social Work": "http://www.aus.ac.in/iqac/wp-content/uploads/sites/88/2021/08/Social_Work_Curriculum_Revised_2021.pdf",
    "M.A. in Sociology": "http://www.aus.ac.in/iqac/wp-content/uploads/sites/88/2021/08/Sociology_M_A_SYLLABUS__2021-3-1.pdf",
    "M.Sc in Microbiology": "http://www.aus.ac.in/iqac/wp-content/uploads/sites/88/2021/08/MicroBiology_Revised-syllabus-2019-with-Electives-and-Course-Objective.pdf",
    "B.Tech in Computer Science & Engineering": "http://www.aus.ac.in/iqac/wp-content/uploads/sites/88/2021/08/BTECH_CSE_AUS_SYLLABUS_2019.pdf",
    "M.Tech in Computer Science & Engineering": "http://www.aus.ac.in/iqac/wp-content/uploads/sites/88/2021/09/CSE_M.Tech_.pdf",
    "B.Tech in Electronics & Communication Engineering": "http://www.aus.ac.in/iqac/wp-content/uploads/sites/88/2021/08/B.Tech_New_FullSyllabus-2020-2021.pdf",
    "M.Tech in Electronics & Communication Engineerin": "http://www.aus.ac.in/iqac/wp-content/uploads/sites/88/2021/08/MTech-full-syllabus-2020-21.pdf",
    "M.A. in English": "http://www.aus.ac.in/iqac/wp-content/uploads/sites/88/2021/08/NAAC-Assam-University-MA-English-Syllabus.pdf",
    "M.A. in Assamese": "http://www.aus.ac.in/iqac/wp-content/uploads/sites/88/2021/08/PG-Syllabus-in-Assamese-2021.pdf",
    "M.Sc in Earth Science": "http://www.aus.ac.in/iqac/wp-content/uploads/sites/88/2021/08/Earth_Science_Syllabus-New.pdf",
    "M.Sc in Anthropology": "http://www.aus.ac.in/iqac/wp-content/uploads/sites/88/2021/08/ANTHROPOLOGY-PG-Syllabus-2020-21.pdf",
    "Master of Library and Information Science": "http://www.aus.ac.in/iqac/wp-content/uploads/sites/88/2021/08/AUS-DLISCc-MLISc-2021-Syllabus.pdf",
    "M.A. in Mass Communication": "http://www.aus.ac.in/iqac/wp-content/uploads/sites/88/2021/08/Revised-PG-Syllabus-2021-Mass-Communication.pdf",
    "M.Sc in Chemistry": "http://www.aus.ac.in/iqac/wp-content/uploads/sites/88/2021/08/MSC-SYLLABUS-IN-CHEM-1.pdf",
    "M.Sc in Life Science & Bioinformatics": "http://www.aus.ac.in/iqac/wp-content/uploads/sites/88/2021/08/NEW-SYLLABI-January-2021-Life-Science.pdf",
    "Bachelor in Pharmaceutical Sciences": "http://www.aus.ac.in/iqac/wp-content/uploads/sites/88/2021/08/Pharmaceutical_syllabus_with_outcome.pdf",
    "M.Sc in Biotechnology": "http://www.aus.ac.in/iqac/wp-content/uploads/sites/88/2021/08/Biotechnology-_PG-syllabus-CBCS.pdf",
    "M.Sc in Ecology & Environmental Science": "http://www.aus.ac.in/iqac/wp-content/uploads/sites/88/2021/09/Ecology_New_Syllabus.pdf",
    "B.V.A. in Visual Arts": "http://www.aus.ac.in/iqac/wp-content/uploads/sites/88/2021/08/VisualArts_BVA.pdf",
    "M.V.A. in Visual Arts": "http://www.aus.ac.in/iqac/wp-content/uploads/sites/88/2021/08/VisualArts_MVA-1.pdf",
    "M.A. in Linguistics": "http://www.aus.ac.in/iqac/wp-content/uploads/sites/88/2020/01/Linguistics.pdf",
    "M.A. in Indian Comparative Literature": "http://www.aus.ac.in/iqac/wp-content/uploads/sites/88/2021/03/ICL_Syllabus.pdf",
    "M.A. in Hindi": "http://www.aus.ac.in/iqac/wp-content/uploads/sites/88/2021/08/Hindi_Syllabus_2015.pdf",
    "M.A. in Bengali": "http://www.aus.ac.in/iqac/wp-content/uploads/sites/88/2021/08/Bengali_PG-Syllabus-Final.pdf",
    "M.A. in Manipuri": "http://www.aus.ac.in/iqac/wp-content/uploads/sites/88/2020/01/MA-Manipurin-Syllabus.pdf",
    "M.A. in Sanskrit": "http://www.aus.ac.in/iqac/wp-content/uploads/sites/88/2021/08/PG-Syllabus-CBCS-2020_sanskrit.pdf",
    "M.A. in Urdu": "http://www.aus.ac.in/iqac/wp-content/uploads/sites/88/2020/01/urdu_syllabus.compressed.pdf",
    "M.A. in French": "http://www.aus.ac.in/iqac/wp-content/uploads/sites/88/2020/01/French-M.A.pdf",
    "M.A. in Arabic": "http://www.aus.ac.in/iqac/wp-content/uploads/sites/88/2021/08/Arabic_MA-Arabic-Syllabus-2021-1.pdf",
    "M.A. in Economics": "http://www.aus.ac.in/iqac/wp-content/uploads/sites/88/2020/01/Economics.pdf",
    "Master of Commerce": "http://www.aus.ac.in/iqac/wp-content/uploads/sites/88/2020/01/M-Com-Syllabus.pdf",
    "M.A. in Political Science": "http://www.aus.ac.in/iqac/wp-content/uploads/sites/88/2020/01/Political-Science-MA.pdf",
    "M.A. in History": "http://www.aus.ac.in/iqac/wp-content/uploads/sites/88/2020/01/History-MA-Syllabus.pdf",
    "B.Sc.BE. in Education": "http://www.aus.ac.in/iqac/wp-content/uploads/sites/88/2020/01/BscBed_education.pdf",
    "M.Sc in Physics": "http://www.aus.ac.in/iqac/wp-content/uploads/sites/88/2021/08/Physics_PGPhysics-Revised_syllabus_Physics__4June2021.pdf",
    "M.Sc in Mathematics": "http://www.aus.ac.in/iqac/wp-content/uploads/sites/88/2021/08/Mathematics_PG-Syllabus-2019.pdf",
    "M.Sc (INTEGRATED) in Computer Science": "http://www.aus.ac.in/iqac/wp-content/uploads/sites/88/2021/08/ComputerSc_Integrated-Msc-New-CBCS-1.pdf",
    "M.Sc in Computer Science": "http://www.aus.ac.in/iqac/wp-content/uploads/sites/88/2021/08/ComputerSc_Msc-2years-New-CBCS.pdf",
    "B.A. LL.B.": "http://www.aus.ac.in/iqac/wp-content/uploads/sites/88/2020/01/B.A.LL_.B.Honours-SYLLABUS.pdf",
    "LL.M.": "http://www.aus.ac.in/iqac/wp-content/uploads/sites/88/2020/01/LL.M.-SYLLABUS-2015.pdf",
    "Bachelor in Performing Arts (Classical Music)": "http://www.aus.ac.in/iqac/wp-content/uploads/sites/88/2020/01/BPA-in-Classical-Music.pdf",
    "Bachelor in Performing Arts (Dance)": "http://www.aus.ac.in/iqac/wp-content/uploads/sites/88/2020/01/BPA-in-Dance.pdf",
    "Bachelor in Performing Arts (Dramatics)": "http://www.aus.ac.in/iqac/wp-content/uploads/sites/88/2020/01/BPA-in-Dramatics.pdf",
    "Bachelor in Performing Arts (Instrumental Music)": "http://www.aus.ac.in/iqac/wp-content/uploads/sites/88/2020/01/BPA-in-Instrumental-Music.pdf",
    "PGDBC in Ecology & Environmental Science": "http://www.aus.ac.in/iqac/wp-content/uploads/sites/88/2020/01/post-Graduate-Diploma-on-Conservation.pdf",
    "Post Graduate Diploma in Marketing Management": "http://www.aus.ac.in/iqac/wp-content/uploads/sites/88/2020/01/Post-Graduate-Diploma-in-Marketing-Management.pdf",
    "M.A. in Philosophy": "http://www.aus.ac.in/iqac/wp-content/uploads/sites/88/2021/08/Philosophy_final-PG-Syllabus_2021.pdf",
    "M.Ed. in Education": "http://www.aus.ac.in/iqac/wp-content/uploads/sites/88/2021/08/Education_M.Ed-structure-I-IV-and-syllabus-for-upload.pdf",
    "M.A. in Education": "http://www.aus.ac.in/iqac/wp-content/uploads/sites/88/2021/08/Education_MA-SYLLABUS-FOR-UPLOAD.pdf",
    "MBA Hospitality & Tourism Management": "http://www.aus.ac.in/iqac/wp-content/uploads/sites/88/2021/08/Hospitality_Tourism_SYLLABUS_of_MBAHTM.pdf",
    "Master of Business Administration": "http://www.aus.ac.in/iqac/wp-content/uploads/sites/88/2021/08/MBA_Final_Syllabus.pdf",
    "B.Tech in Agricultural Engineering": "http://www.aus.ac.in/iqac/wp-content/uploads/sites/88/2021/08/Agri_under_graduate.pdf",
    "M.Tech. in Farm Machinery and Power Engineering: Agricultural Engineering": "http://www.aus.ac.in/iqac/wp-content/uploads/sites/88/2021/08/Agri_farm.pdf",
    "M.Tech. in Water Resources Development and Management: Agricultural Engineering": "http://www.aus.ac.in/iqac/wp-content/uploads/sites/88/2021/08/Agri_water.pdf",
    "M.Tech. in Food Process Engineering: Agricultural Engineering": "http://www.aus.ac.in/iqac/wp-content/uploads/sites/88/2021/08/Agri_food.pdf",
    "M.Tech. in Aquacultural Engineering: Agricultural Engineering": "http://www.aus.ac.in/iqac/wp-content/uploads/sites/88/2021/08/Agri_Aqua.pdf"
}