{
    "Course Work in Library & Information Science": "http://www.aus.ac.in/iqac/wp-content/uploads/sites/88/2021/09/Library_MPhil_Phd_Syllabus.pdf",
    "Course Work in Assamese": "http://www.aus.ac.in/iqac/wp-content/uploads/sites/88/2020/01/Assamese-Course-Work.pdf",
    "Course Work in Ecology & Environmental Science": "http://www.aus.ac.in/iqac/wp-content/uploads/sites/88/2020/01/Ecology-Course-Work.pdf",
    "Course Work in English": "http://www.aus.ac.in/iqac/wp-content/uploads/sites/88/2020/01/English-Course-Work.pdf",
    "Course Work in History": "http://www.aus.ac.in/iqac/wp-content/uploads/sites/88/2020/01/History-Course-Work.pdf",
    "Course Work in Law": "http://www.aus.ac.in/iqac/wp-content/uploads/sites/88/2020/01/Law-Course-Work.pdf",
    "Course Work in Life Science & Bioinformatics": "http://www.aus.ac.in/iqac/wp-content/uploads/sites/88/2021/09/Life-Science_MPhil_PhD_syllabus.pdf",
    "Course Work in Manipuri": "http://www.aus.ac.in/iqac/wp-content/uploads/sites/88/2020/01/Manipuri-Course-Work.pdf",
    "Course Work in Mass Communication": "http://www.aus.ac.in/iqac/wp-content/uploads/sites/88/2020/01/Mass-Communication-Course-Work-Syllabus.pdf",
    "Course Work in Social Work": "http://www.aus.ac.in/iqac/wp-content/uploads/sites/88/2020/01/Social-Work-Course-Work.pdf",
    "Course Work in Sanskrit": "http://www.aus.ac.in/iqac/wp-content/uploads/sites/88/2020/01/Sanskrit-Course-Work-Syllabus.pdf",
    "Course Work in Visual Arts": "http://www.aus.ac.in/iqac/wp-content/uploads/sites/88/2020/01/Visual-Arts-Course-Work.pdf",
    "Course Work in Statistics": "http://www.aus.ac.in/iqac/wp-content/uploads/sites/88/2020/01/IPP-Statistics.pdf",
    "Course Work in Physics": "http://www.aus.ac.in/iqac/wp-content/uploads/sites/88/2020/01/IPP-Physics.pdf",
    "Course Work in Chemistry": "http://www.aus.ac.in/iqac/wp-content/uploads/sites/88/2020/01/IPP-Chemistry.pdf",
    "Course Work in Sociology": "http://www.aus.ac.in/iqac/wp-content/uploads/sites/88/2020/01/Annexure-B-M.Phil-Ph.D.-2017.pdf"
}