{
    "PG Programmes": [
        {
            "Program Code": "MB-ABB-F",
            "Program Name": "MBA (Agribusiness)"
        },
        {
            "Program Code": "MS-FST-F",
            "Program Name": "M.Sc. Food Science & Technology"
        },
        {
            "Program Code": "MS-LBC-F",
            "Program Name": "M.Sc. Life Sciences (Specialization in Biochemistry)"
        },
        {
            "Program Code": "MS-LPS-F",
            "Program Name": "M.Sc. Life Sciences (Specialization in Plant Sciences)"
        },
        {
            "Program Code": "MS-CHM-F",
            "Program Name": "M.Sc. Chemistry"
        },
        {
            "Program Code": "MS-CAC-F",
            "Program Name": "M.Sc. Chemistry (Specialization Applied Chemistry)"
        },
        {
            "Program Code": "MS-SSS-F",
            "Program Name": "M.Sc. Chemistry (Computational Chemistry)"
        },
        {
            "Program Code": "MS-LBI-F",
            "Program Name": "M.Sc. Life Sciences (Specialization in Bioinformatics)"
        },
        {
            "Program Code": "MS-PCP-F",
            "Program Name": "M.Sc. Physics (Computational Physics)"
        },
        {
            "Program Code": "MS-MAT-F",
            "Program Name": "M.Sc. Mathematics"
        },
        {
            "Program Code": "MS-STA-F",
            "Program Name": "M.Sc. Statistics"
        },
        {
            "Program Code": "MS-LMS-F",
            "Program Name": "M.Sc. Life Sciences (Specialization in Microbial Sciences)"
        },
        {
            "Program Code": "MH-MPC-F",
            "Program Name": "M.Pharm. Pharmaceutical Sciences (Medicinal Chemistry)"
        },
        {
            "Program Code": "MH-MPG-F",
            "Program Name": "M.Pharm. Pharmaceutical Sciences (Pharmacogonosy and Phytochemistry)"
        },
        {
            "Program Code": "MS-CMC-F",
            "Program Name": "M.Sc. Chemical Sciences (Medicinal Chemistry)"
        },
        {
            "Program Code": "MH-MPL-F",
            "Program Name": "M.Pharm. Pharmaceutical Sciences (Pharmacology)"
        },
        {
            "Program Code": "MS-PHY-F",
            "Program Name": "M.Sc. Physics"
        },
        {
            "Program Code": "MS-LAS-F",
            "Program Name": "M.Sc. Life Sciences (Specialization in Animal Sciences)"
        },
        {
            "Program Code": "MA-EDU-F",
            "Program Name": "M.A. Education"
        },
        {
            "Program Code": "ME-MED-F",
            "Program Name": "M.Ed."
        },
        {
            "Program Code": "MP-MPE-F",
            "Program Name": "MP.Ed."
        },
        {
            "Program Code": "MS-CST-F",
            "Program Name": "M.Tech. Computer Science and Technology"
        },
        {
            "Program Code": "MT-CBS-F",
            "Program Name": "M.Tech. Computer Science and Technology (Cyber Security)"
        },
        {
            "Program Code": "MS-EST-F",
            "Program Name": "M.Sc. Environment Science and Technology"
        },
        {
            "Program Code": "MA-GEO-F",
            "Program Name": "M.A. Geography"
        },
        {
            "Program Code": "MS-GEO-F",
            "Program Name": "M.Sc. Geography"
        },
        {
            "Program Code": "MS-EGS-F",
            "Program Name": "M.Sc. Geology"
        },
        {
            "Program Code": "MS-LHG-F",
            "Program Name": "M.Sc. Life Sciences (Specialization in Human Genetics)"
        },
        {
            "Program Code": "MS-LMM-F",
            "Program Name": "M.Sc. Life Sciences (Specialization in Molecular Medicine)"
        },
        {
            "Program Code": "ML-LIS-F",
            "Program Name": "M.Lib. I.Sc. (Master of Library & Information Sciences"
        },
        {
            "Program Code": "MA-JMC-F",
            "Program Name": "M.A. Journalism and Mass Communication"
        },
        {
            "Program Code": "MA-POL-F",
            "Program Name": "M.A. Political Science"
        },
        {
            "Program Code": "MA-ENG-F",
            "Program Name": "M.A. English"
        },
        {
            "Program Code": "MA-HIN-F",
            "Program Name": "M.A. Hindi"
        },
        {
            "Program Code": "MA-PBI-F",
            "Program Name": "M.A. Punjabi"
        },
        {
            "Program Code": "LM-LLM-F",
            "Program Name": "LL.M."
        },
        {
            "Program Code": "MC-MCM-F",
            "Program Name": "M.Com"
        },
        {
            "Program Code": "MA-ECO-F",
            "Program Name": "M.A. Economics"
        },
        {
            "Program Code": "MA-HIS-F",
            "Program Name": "M.A. History"
        },
        {
            "Program Code": "MA-PSY-F",
            "Program Name": "M.A. Psychology"
        },
        {
            "Program Code": "MA-SOC-F",
            "Program Name": "M.A. Sociology"
        }
    ],
    "Ph.D. Programmes": [
        {
            "Program Code": "PH-BOT-F",
            "Program Name": "Ph.D. in Botany"
        },
        {
            "Program Code": "PH-ZOL-F",
            "Program Name": "Ph.D. in Zoology"
        },
        {
            "Program Code": "PH-CHM-F",
            "Program Name": "Ph.D. in Chemistry"
        },
        {
            "Program Code": "PH-LBC-F",
            "Program Name": "Ph.D. in Biochemistry"
        },
        {
            "Program Code": "PH-LMS-F",
            "Program Name": "Ph.D. in Microbial Sciences"
        },
        {
            "Program Code": "PH-CST-F",
            "Program Name": "Ph.D. in Computer Science and Technology"
        },
        {
            "Program Code": "PH-MAT-F",
            "Program Name": "Ph.D. in Mathematics"
        },
        {
            "Program Code": "PH-MPS-F",
            "Program Name": "Ph.D. in Pharmaceutical Sciences"
        },
        {
            "Program Code": "PH-PHY-F",
            "Program Name": "Ph.D. Physics"
        },
        {
            "Program Code": "PH-EDU-F",
            "Program Name": "Ph.D. in Education"
        },
        {
            "Program Code": "PH-EST-F",
            "Program Name": "Ph.D. in Environmental Sciences"
        },
        {
            "Program Code": "PH-LHG-F",
            "Program Name": "Ph.D. in Geography"
        },
        {
            "Program Code": "PH-POL-F",
            "Program Name": "Ph.D. in Political Science"
        },
        {
            "Program Code": "PH-LHG-F",
            "Program Name": "Ph.D. in Human Genetics"
        },
        {
            "Program Code": "PH-LMM-F",
            "Program Name": "Ph.D. in Molecular Medicine"
        },
        {
            "Program Code": "PH-ECO-F",
            "Program Name": "Ph.D. in Economics"
        },
        {
            "Program Code": "PH-JMC-F",
            "Program Name": "Ph.D. in Mass Communication & Media Studies"
        },
        {
            "Program Code": "PH-MCM-F",
            "Program Name": "Ph.D. in Commerce"
        },
        {
            "Program Code": "PH-PBI-F",
            "Program Name": "Ph.D. in Punjabi"
        },
        {
            "Program Code": "PH-HIN-F",
            "Program Name": "Ph.D. in Hindi"
        }
    ]
}