[
    {
        "Rank": "1",
        "Institution": {
            "Institution": "Johns Hopkins University School of Medicine",
            "Institution-Link": "https://www.hopkinsmedicine.org/som/"
        },
        "Campus": "Baltimore, Maryland",
        "Country": "US",
        "Score": "99.06"
    },
    {
        "Rank": "2",
        "Institution": {
            "Institution": "Harvard Medical School",
            "Institution-Link": "https://hms.harvard.edu/"
        },
        "Campus": "Boston, MA",
        "Country": "US",
        "Score": "98.13"
    },
    {
        "Rank": "3",
        "Institution": {
            "Institution": "Perelman School of Medicine at the University of Pennsylvania",
            "Institution-Link": "https://www.med.upenn.edu/"
        },
        "Campus": "Philadelphia, Pennsylvania",
        "Country": "US",
        "Score": "96.75"
    },
    {
        "Rank": "4",
        "Institution": {
            "Institution": "NYU Grossman School of Medicine",
            "Institution-Link": "https://med.nyu.edu/"
        },
        "Campus": "New York City, New York",
        "Country": "US",
        "Score": "96.53"
    },
    {
        "Rank": "5",
        "Institution": {
            "Institution": "Stanford University School of Medicine",
            "Institution-Link": "http://med.stanford.edu/"
        },
        "Campus": "Stanford, California",
        "Country": "US",
        "Score": "96.15"
    },
    {
        "Rank": "6",
        "Institution": {
            "Institution": "Columbia University Vagelos College of Physicians and Surgeons",
            "Institution-Link": "https://www.ps.columbia.edu/"
        },
        "Campus": "New York City, New York",
        "Country": "US",
        "Score": "94.4"
    },
    {
        "Rank": "7",
        "Institution": {
            "Institution": "Mayo Clinic Alix School of Medicine",
            "Institution-Link": "https://college.mayo.edu/academics/mayo-clinic-alix-school-of-medicine/"
        },
        "Campus": "Rochester, Minnesota",
        "Country": "US",
        "Score": "93.69"
    },
    {
        "Rank": "8",
        "Institution": {
            "Institution": "David Geffen School of Medicine at UCLA (DGSOM)",
            "Institution-Link": "https://medschool.ucla.edu/"
        },
        "Campus": "Los Angeles, CA",
        "Country": "US",
        "Score": "92.08"
    },
    {
        "Rank": "9",
        "Institution": {
            "Institution": "UCSF School of Medicine",
            "Institution-Link": "https://medschool.ucsf.edu/"
        },
        "Campus": "San Francisco, California",
        "Country": "US",
        "Score": "91.26"
    },
    {
        "Rank": "10",
        "Institution": {
            "Institution": "Washington University School of Medicine in St. Louis",
            "Institution-Link": "https://medicine.wustl.edu/"
        },
        "Campus": "St. Louis, MO",
        "Country": "US",
        "Score": "91.23"
    },
    {
        "Rank": "11",
        "Institution": {
            "Institution": "University of Pittsburgh School of Medicine",
            "Institution-Link": "https://www.medschool.pitt.edu/"
        },
        "Campus": "Pittsburgh, Pennsylvania",
        "Country": "US",
        "Score": "90.68"
    },
    {
        "Rank": "12",
        "Institution": {
            "Institution": "Weill Cornell Graduate School of Medical Sciences",
            "Institution-Link": "https://weill.cornell.edu/"
        },
        "Campus": "New York City, New York",
        "Country": "US",
        "Score": "90.3"
    },
    {
        "Rank": "13",
        "Institution": {
            "Institution": "Yale School of Medicine",
            "Institution-Link": "https://medicine.yale.edu/"
        },
        "Campus": "New Haven, Connecticut",
        "Country": "US",
        "Score": "89.67"
    },
    {
        "Rank": "14",
        "Institution": {
            "Institution": "Northwestern University Feinberg School of Medicine",
            "Institution-Link": "https://www.feinberg.northwestern.edu/"
        },
        "Campus": "Chicago, Illinois",
        "Country": "US",
        "Score": "89.11"
    },
    {
        "Rank": "15",
        "Institution": {
            "Institution": "Vanderbilt University School of Medicine",
            "Institution-Link": "https://medschool.vanderbilt.edu/"
        },
        "Campus": "Nashville, Tennessee",
        "Country": "US",
        "Score": "88.73"
    },
    {
        "Rank": "16",
        "Institution": {
            "Institution": "Duke University School of Medicine",
            "Institution-Link": "https://medschool.duke.edu/"
        },
        "Campus": "Durham, North Carolina",
        "Country": "US",
        "Score": "88.52"
    },
    {
        "Rank": "17",
        "Institution": {
            "Institution": "Icahn School of Medicine at Mount Sinai",
            "Institution-Link": "https://icahn.mssm.edu/"
        },
        "Campus": "New York City, New York",
        "Country": "US",
        "Score": "88.23"
    },
    {
        "Rank": "18",
        "Institution": {
            "Institution": "University of Chicago Pritzker School of Medicine",
            "Institution-Link": "https://pritzker.uchicago.edu/"
        },
        "Campus": "Chicago, Illinois",
        "Country": "US",
        "Score": "87.76"
    },
    {
        "Rank": "19",
        "Institution": {
            "Institution": "University of Michigan Medical School Ann Arbor",
            "Institution-Link": "https://medicine.umich.edu/medschool/home"
        },
        "Campus": "Ann Arbor, MI",
        "Country": "US",
        "Score": "87.64"
    },
    {
        "Rank": "20",
        "Institution": {
            "Institution": "University of Washington School of Medicine",
            "Institution-Link": "https://www.uwmedicine.org/"
        },
        "Campus": "Seattle, Washington",
        "Country": "US",
        "Score": "87.62"
    },
    {
        "Rank": "21",
        "Institution": {
            "Institution": "University of North Carolina School of Medicine",
            "Institution-Link": "https://www.med.unc.edu/"
        },
        "Campus": "Chapel Hill, North Carolina",
        "Country": "US",
        "Score": "86.85"
    },
    {
        "Rank": "22",
        "Institution": {
            "Institution": "UC San Diego School of Medicine",
            "Institution-Link": "https://medschool.ucsd.edu/Pages/default.aspx"
        },
        "Campus": "San Diego, California",
        "Country": "US",
        "Score": "86.6"
    },
    {
        "Rank": "23",
        "Institution": {
            "Institution": "All India Institute of Medical Sciences",
            "Institution-Link": "https://www.aiims.edu/"
        },
        "Campus": "New Delhi",
        "Country": "India",
        "Score": "86.38"
    },
    {
        "Rank": "24",
        "Institution": {
            "Institution": "Oxford University Medical School",
            "Institution-Link": "https://www.medsci.ox.ac.uk/"
        },
        "Campus": "Oxford, England",
        "Country": "UK",
        "Score": "86.02"
    },
    {
        "Rank": "25",
        "Institution": {
            "Institution": "University of Cincinnati College of Medicine",
            "Institution-Link": "https://med.uc.edu/"
        },
        "Campus": "Cincinnati, O",
        "Country": "US",
        "Score": "85.08"
    },
    {
        "Rank": "26",
        "Institution": {
            "Institution": "University of Cambridge School of Clinical Medicine",
            "Institution-Link": "https://www.medschl.cam.ac.uk/"
        },
        "Campus": "Cambridge, England",
        "Country": "UK",
        "Score": "84.96"
    },
    {
        "Rank": "27",
        "Institution": {
            "Institution": "Boston University School of Medicine",
            "Institution-Link": "https://www.bumc.bu.edu/busm/"
        },
        "Campus": "Boston, MA",
        "Country": "US",
        "Score": "84.75"
    },
    {
        "Rank": "28",
        "Institution": {
            "Institution": "Karolinska Institute",
            "Institution-Link": "https://ki.se/en"
        },
        "Campus": "Solna",
        "Country": "Sweden",
        "Score": "84.64"
    },
    {
        "Rank": "29",
        "Institution": {
            "Institution": "Indiana University School of Medicine",
            "Institution-Link": "https://medicine.iu.edu/"
        },
        "Campus": "Indianapolis, Indiana",
        "Country": "US",
        "Score": "84.43"
    },
    {
        "Rank": "30",
        "Institution": {
            "Institution": "UCL Medical School",
            "Institution-Link": "https://www.ucl.ac.uk/medical-school/"
        },
        "Campus": "London, England",
        "Country": "UK",
        "Score": "83.79"
    },
    {
        "Rank": "31",
        "Institution": {
            "Institution": "Baylor College of Medicine",
            "Institution-Link": "https://www.bcm.edu/education/school-of-medicine"
        },
        "Campus": "Houston, Texas",
        "Country": "US",
        "Score": "83.39"
    },
    {
        "Rank": "32",
        "Institution": {
            "Institution": "University of Toronto's Faculty of Medicine",
            "Institution-Link": "https://applymd.utoronto.ca/"
        },
        "Campus": "Toronto",
        "Country": "Canada",
        "Score": "83.39"
    },
    {
        "Rank": "33",
        "Institution": {
            "Institution": "Melbourne Medical School",
            "Institution-Link": "https://medicine.unimelb.edu.au/"
        },
        "Campus": "Melbourne",
        "Country": "Australia",
        "Score": "83.26"
    },
    {
        "Rank": "34",
        "Institution": {
            "Institution": "Armed Forces Medical College",
            "Institution-Link": "https://www.afmc.nic.in/"
        },
        "Campus": "Pune",
        "Country": "India",
        "Score": "83.04"
    },
    {
        "Rank": "35",
        "Institution": {
            "Institution": "University of Virginia School of Medicine",
            "Institution-Link": "https://med.virginia.edu/"
        },
        "Campus": "Charlottesville, VA",
        "Country": "US",
        "Score": "82.95"
    },
    {
        "Rank": "36",
        "Institution": {
            "Institution": "Faculty of Medicine Imperial College London",
            "Institution-Link": "http://www.imperial.ac.uk/medicine/"
        },
        "Campus": "London, England",
        "Country": "UK",
        "Score": "82.87"
    },
    {
        "Rank": "37",
        "Institution": {
            "Institution": "University of Sydney School of Medicine",
            "Institution-Link": "https://www.sydney.edu.au/medicine-health/schools/sydney-medical-school.html"
        },
        "Campus": "Camperdown",
        "Country": "Australia",
        "Score": "82.8"
    },
    {
        "Rank": "38",
        "Institution": {
            "Institution": "GKT School of Medical Education",
            "Institution-Link": "https://www.kcl.ac.uk/study-at-kings/ug/subjects/medicine"
        },
        "Campus": "London, England",
        "Country": "UK",
        "Score": "82.69"
    },
    {
        "Rank": "39",
        "Institution": {
            "Institution": "Case Western Reserve School of Medicine",
            "Institution-Link": "https://case.edu/medicine/"
        },
        "Campus": "Cleveland, Ohio",
        "Country": "US",
        "Score": "82.48"
    },
    {
        "Rank": "40",
        "Institution": {
            "Institution": "London School of Hygiene and Tropical Medicine",
            "Institution-Link": "https://www.lshtm.ac.uk/"
        },
        "Campus": "London, England",
        "Country": "UK",
        "Score": "82.38"
    },
    {
        "Rank": "41",
        "Institution": {
            "Institution": "NUS Yong Loo Lin School of Medicine",
            "Institution-Link": "https://medicine.nus.edu.sg/"
        },
        "Campus": "Singapore",
        "Country": "Singapore",
        "Score": "82.34"
    },
    {
        "Rank": "42",
        "Institution": {
            "Institution": "University of Massachusetts Medical School",
            "Institution-Link": "https://www.umassmed.edu/"
        },
        "Campus": "Worcester, Massachusetts",
        "Country": "US",
        "Score": "82.24"
    },
    {
        "Rank": "43",
        "Institution": {
            "Institution": "McGill University - Faculty of Medicine",
            "Institution-Link": "https://www.mcgill.ca/medhealthsci/"
        },
        "Campus": "Montreal",
        "Country": "Canada",
        "Score": "82.06"
    },
    {
        "Rank": "44",
        "Institution": {
            "Institution": "Seoul National University College of Medicine",
            "Institution-Link": "https://medicine.snu.ac.kr/en"
        },
        "Campus": "Seoul",
        "Country": "South Korea",
        "Score": "81.93"
    },
    {
        "Rank": "45",
        "Institution": {
            "Institution": "Medical Faculty - Heidelberg University",
            "Institution-Link": "https://www.uni-heidelberg.de/en/study/all-subjects/medicine-study-location-heidelberg"
        },
        "Campus": "Heidelberg",
        "Country": "Germany",
        "Score": "81.82"
    },
    {
        "Rank": "46",
        "Institution": {
            "Institution": "Emory School of Medicine",
            "Institution-Link": "https://www.med.emory.edu/"
        },
        "Campus": "Atlanta, Georgia",
        "Country": "US",
        "Score": "81.46"
    },
    {
        "Rank": "47",
        "Institution": {
            "Institution": "Faculty of Medicine - The University of Tokyo",
            "Institution-Link": "https://www.u-tokyo.ac.jp/en/academics/facultyofmedicine.html"
        },
        "Campus": "Tokyo",
        "Country": "Japan",
        "Score": "81.08"
    },
    {
        "Rank": "48",
        "Institution": {
            "Institution": "UBC Faculty of Medicine",
            "Institution-Link": "https://www.med.ubc.ca/"
        },
        "Campus": "Vancouver",
        "Country": "Canada",
        "Score": "80.96"
    },
    {
        "Rank": "49",
        "Institution": {
            "Institution": "Christian Medical College",
            "Institution-Link": "https://www.cmch-vellore.edu/"
        },
        "Campus": "Vellore",
        "Country": "India",
        "Score": "80.83"
    },
    {
        "Rank": "50",
        "Institution": {
            "Institution": "University of California, Irvine School of Medicine",
            "Institution-Link": "https://www.som.uci.edu/"
        },
        "Campus": "Irvine, California",
        "Country": "US",
        "Score": "80.78"
    },
    {
        "Rank": "51",
        "Institution": {
            "Institution": "Faculty of Medicine - University of Amsterdam",
            "Institution-Link": "https://www.uva.nl/en/about-the-uva/organisation/faculties/faculty-of-medicine-amc/faculty-of-medicine.html"
        },
        "Campus": "Amsterdam",
        "Country": "Netherlands",
        "Score": "80.68"
    },
    {
        "Rank": "52",
        "Institution": {
            "Institution": "Monash School of Medicine",
            "Institution-Link": "https://www.monash.edu/medicine/som/home"
        },
        "Campus": "Melbourne",
        "Country": "Australia",
        "Score": "80.11"
    },
    {
        "Rank": "53",
        "Institution": {
            "Institution": "UT Southwestern Medical School",
            "Institution-Link": "https://www.utsouthwestern.edu/education/medical-school/"
        },
        "Campus": "Dallas, Texas",
        "Country": "US",
        "Score": "79.69"
    },
    {
        "Rank": "54",
        "Institution": {
            "Institution": "University of Manchester",
            "Institution-Link": "https://www.bmh.manchester.ac.uk/study/medicine/"
        },
        "Campus": "Manchester, England",
        "Country": "UK",
        "Score": "79.54"
    },
    {
        "Rank": "55",
        "Institution": {
            "Institution": "Li Ka Shing Faculty of Medicine, The University of Hong Kong (HKUMed)",
            "Institution-Link": "https://www.med.hku.hk/"
        },
        "Campus": "Hong Kong",
        "Country": "Hong Kong",
        "Score": "79.46"
    },
    {
        "Rank": "56",
        "Institution": {
            "Institution": "Georgetown University School-Medicine",
            "Institution-Link": "https://som.georgetown.edu/"
        },
        "Campus": "Washington D.C.",
        "Country": "US",
        "Score": "79.39"
    },
    {
        "Rank": "57",
        "Institution": {
            "Institution": "Faculty of Health and Medical Sciences at the University of Copenhagen",
            "Institution-Link": "https://healthsciences.ku.dk/"
        },
        "Campus": "Copenhagen",
        "Country": "Denmark",
        "Score": "79.08"
    },
    {
        "Rank": "58",
        "Institution": {
            "Institution": "Erasmus MC | Erasmus University Rotterdam",
            "Institution-Link": "https://www.eur.nl/en/campus/locations/erasmus-mc"
        },
        "Campus": "Rotterdam",
        "Country": "Netherlands",
        "Score": "78.86"
    },
    {
        "Rank": "59",
        "Institution": {
            "Institution": "JIPMER\\u200b",
            "Institution-Link": "https://www.jipmer.edu.in/"
        },
        "Campus": "Pondicherry",
        "Country": "India",
        "Score": "78.86"
    },
    {
        "Rank": "60",
        "Institution": {
            "Institution": "School of Medicine and Public Health at UW-Madison",
            "Institution-Link": "https://www.med.wisc.edu/"
        },
        "Campus": "Madison, Wisconsin",
        "Country": "US",
        "Score": "78.77"
    },
    {
        "Rank": "61",
        "Institution": {
            "Institution": "Faculty of Medicine of The Chinese University of Hong Kong",
            "Institution-Link": "https://www.med.cuhk.edu.hk/"
        },
        "Campus": "Hong Kong",
        "Country": "Hong Kong",
        "Score": "78.72"
    },
    {
        "Rank": "62",
        "Institution": {
            "Institution": "McMaster University Medical School",
            "Institution-Link": "https://mdprogram.mcmaster.ca/"
        },
        "Campus": "Hamilton",
        "Country": "Canada",
        "Score": "78.49"
    },
    {
        "Rank": "63",
        "Institution": {
            "Institution": "University of Minnesota Medical School",
            "Institution-Link": "https://med.umn.edu/"
        },
        "Campus": "Minneapolis, Minnesota",
        "Country": "US",
        "Score": "77.95"
    },
    {
        "Rank": "64",
        "Institution": {
            "Institution": "Madras Medical College",
            "Institution-Link": "http://www.mmc.ac.in/mmc/"
        },
        "Campus": "Chennai",
        "Country": "India",
        "Score": "77.94"
    },
    {
        "Rank": "65",
        "Institution": {
            "Institution": "Kyiv National University of Technologies and Design",
            "Institution-Link": "https://en.knutd.edu.ua/"
        },
        "Campus": "Kiev",
        "Country": "Ukraine",
        "Score": "77.75"
    },
    {
        "Rank": "66",
        "Institution": {
            "Institution": "School of Medicine at Oregon Health and Science University",
            "Institution-Link": "https://www.ohsu.edu/school-of-medicine"
        },
        "Campus": "Portland, OR",
        "Country": "US",
        "Score": "77.55"
    },
    {
        "Rank": "67",
        "Institution": {
            "Institution": "Medicine at LMU Munich - Ludwig Maximilian University of Munich",
            "Institution-Link": "https://www.en.med.uni-muenchen.de/index.html"
        },
        "Campus": "Munich",
        "Country": "Germany",
        "Score": "77.42"
    },
    {
        "Rank": "68",
        "Institution": {
            "Institution": "Faculty of Medicine - Sorbonne Universite",
            "Institution-Link": "https://www.sorbonne-universite.fr/en/university/governance-and-organization/faculties/faculty-medicine"
        },
        "Campus": "Paris",
        "Country": "France",
        "Score": "77.35"
    },
    {
        "Rank": "69",
        "Institution": {
            "Institution": "National Taiwan University School of Medicine",
            "Institution-Link": "https://www.mc.ntu.edu.tw/med/"
        },
        "Campus": "Taipei",
        "Country": "Taiwan",
        "Score": "77.28"
    },
    {
        "Rank": "70",
        "Institution": {
            "Institution": "University of Alabama-Birmingham School of Medicine (UAB)",
            "Institution-Link": "https://www.uab.edu/medicine/home/"
        },
        "Campus": "Birmingham, Alabama",
        "Country": "US",
        "Score": "77.22"
    },
    {
        "Rank": "71",
        "Institution": {
            "Institution": "Faculty of Medicine - KU Leuven",
            "Institution-Link": "https://med.kuleuven.be/en"
        },
        "Campus": "Leuven",
        "Country": "Belgium",
        "Score": "77.16"
    },
    {
        "Rank": "72",
        "Institution": {
            "Institution": "Institute of Medical Sciences BHU",
            "Institution-Link": "https://www.bhu.ac.in/ims/"
        },
        "Campus": "Varanasi",
        "Country": "India",
        "Score": "76.77"
    },
    {
        "Rank": "73",
        "Institution": {
            "Institution": "University of Colorado School of Medicine",
            "Institution-Link": "https://medschool.cuanschutz.edu/"
        },
        "Campus": "Aurora, Colorado",
        "Country": "US",
        "Score": "76.77"
    },
    {
        "Rank": "74",
        "Institution": {
            "Institution": "Graduate School of Medicine Kyoto University",
            "Institution-Link": "https://www.med.kyoto-u.ac.jp/E/grad_school/"
        },
        "Campus": "Kyoto",
        "Country": "Japan",
        "Score": "76.76"
    },
    {
        "Rank": "75",
        "Institution": {
            "Institution": "Peking University Health Science Center",
            "Institution-Link": "https://e.bjmu.edu.cn/"
        },
        "Campus": "Beijing",
        "Country": "China",
        "Score": "76.56"
    },
    {
        "Rank": "76",
        "Institution": {
            "Institution": "Keck School of Medicine of the University of Southern California",
            "Institution-Link": "https://keck.usc.edu/"
        },
        "Campus": "Los Angeles, California",
        "Country": "US",
        "Score": "76.46"
    },
    {
        "Rank": "77",
        "Institution": {
            "Institution": "SKKU School of Medicine",
            "Institution-Link": "https://admission-global.skku.edu/"
        },
        "Campus": "Seoul",
        "Country": "South Korea",
        "Score": "76.46"
    },
    {
        "Rank": "78",
        "Institution": {
            "Institution": "Faculty of Medicine - University of Zurich",
            "Institution-Link": "https://www.uzh.ch/en/studies/application/medicine.html"
        },
        "Campus": "Zurich",
        "Country": "Switzerland",
        "Score": "76.32"
    },
    {
        "Rank": "79",
        "Institution": {
            "Institution": "University of Florida College of Medicine",
            "Institution-Link": "https://med.ufl.edu/"
        },
        "Campus": "Gainesville, Florida",
        "Country": "US",
        "Score": "75.66"
    },
    {
        "Rank": "80",
        "Institution": {
            "Institution": "Faculty of Medicine - Universiteit Utrecht",
            "Institution-Link": "https://www.uu.nl/en/organisation/faculty-of-medicine-umc-utrecht"
        },
        "Campus": "Utrecht",
        "Country": "Netherlands",
        "Score": "75.52"
    },
    {
        "Rank": "81",
        "Institution": {
            "Institution": "Medicine - Universitat de Barcelona",
            "Institution-Link": "https://www.ub.edu/web/ub/en/estudis/oferta_formativa/graus/fitxa/M/G1046/"
        },
        "Campus": "Barcelona",
        "Country": "Spain",
        "Score": "75.49"
    },
    {
        "Rank": "82",
        "Institution": {
            "Institution": "UC Davis School of Medicine",
            "Institution-Link": "https://health.ucdavis.edu/medschool/"
        },
        "Campus": "Sacramento, CA",
        "Country": "US",
        "Score": "75.45"
    },
    {
        "Rank": "83",
        "Institution": {
            "Institution": "Faculty of Health, Medicine and Life Sciences - Maastricht University",
            "Institution-Link": "https://www.maastrichtuniversity.nl/education/bachelor/bachelor-medicine"
        },
        "Campus": "Maastricht",
        "Country": "Netherlands",
        "Score": "75.11"
    },
    {
        "Rank": "84",
        "Institution": {
            "Institution": "TUM School of Medicine (TUM MED)",
            "Institution-Link": "https://www.med.tum.de/en/welcome-tum-school-medicine"
        },
        "Campus": "Munich",
        "Country": "Germany",
        "Score": "74.89"
    },
    {
        "Rank": "85",
        "Institution": {
            "Institution": "Albert Einstein College of Medicine",
            "Institution-Link": "https://einsteinmed.org/"
        },
        "Campus": "New York City, New York",
        "Country": "US",
        "Score": "74.8"
    },
    {
        "Rank": "86",
        "Institution": {
            "Institution": "ETH Zurich",
            "Institution-Link": "https://ethz.ch/en/"
        },
        "Campus": "Zurich",
        "Country": "Switzerland",
        "Score": "74.79"
    },
    {
        "Rank": "87",
        "Institution": {
            "Institution": "Leiden University Medical Center",
            "Institution-Link": "https://www.universiteitleiden.nl/en/medicine-lumc"
        },
        "Campus": "Leiden",
        "Country": "Netherlands",
        "Score": "74.13"
    },
    {
        "Rank": "88",
        "Institution": {
            "Institution": "University of Utah School of Medicine",
            "Institution-Link": "https://medicine.utah.edu/"
        },
        "Campus": "Salt Lake City, Utah",
        "Country": "US",
        "Score": "74.11"
    },
    {
        "Rank": "89",
        "Institution": {
            "Institution": "Faculty of Medicine - Lund University",
            "Institution-Link": "https://www.medicine.lu.se/"
        },
        "Campus": "Lund",
        "Country": "Sweden",
        "Score": "73.66"
    },
    {
        "Rank": "90",
        "Institution": {
            "Institution": "International Medical School, University of Milan",
            "Institution-Link": "https://www.unimi.it/en/education/international-medical-school-ims"
        },
        "Campus": "Milan",
        "Country": "Italy",
        "Score": "73.59"
    },
    {
        "Rank": "91",
        "Institution": {
            "Institution": "Warren Alpert Medical School of Brown University",
            "Institution-Link": "https://medical.brown.edu/"
        },
        "Campus": "Providence, Rhode Island",
        "Country": "US",
        "Score": "73.21"
    },
    {
        "Rank": "92",
        "Institution": {
            "Institution": "School of Medicine at National and Kapodistrian University",
            "Institution-Link": "https://school-en.med.uoa.gr/"
        },
        "Campus": "Athens",
        "Country": "Greece",
        "Score": "73.16"
    },
    {
        "Rank": "93",
        "Institution": {
            "Institution": "University of Rochester School of Medicine and Dentistry",
            "Institution-Link": "https://www.urmc.rochester.edu/smd.aspx"
        },
        "Campus": "Rochester, New York",
        "Country": "US",
        "Score": "73.08"
    },
    {
        "Rank": "94",
        "Institution": {
            "Institution": "Medicine - University of Groningen",
            "Institution-Link": "https://www.rug.nl/bachelors/medicine/"
        },
        "Campus": "Groningen",
        "Country": "Netherlands",
        "Score": "73.05"
    },
    {
        "Rank": "95",
        "Institution": {
            "Institution": "University of Maryland School of Medicine",
            "Institution-Link": "https://www.medschool.umaryland.edu/"
        },
        "Campus": "Baltimore, Maryland",
        "Country": "US",
        "Score": "72.95"
    },
    {
        "Rank": "96",
        "Institution": {
            "Institution": "University of Crete Medical School",
            "Institution-Link": "http://www.med.uoc.gr/"
        },
        "Campus": "Crete",
        "Country": "Greece",
        "Score": "72.74"
    },
    {
        "Rank": "97",
        "Institution": {
            "Institution": "Roy J. and Lucille A. Carver College of Medicine",
            "Institution-Link": "https://medicine.uiowa.edu/"
        },
        "Campus": "Iowa City, Iowa",
        "Country": "US",
        "Score": "72.57"
    },
    {
        "Rank": "98",
        "Institution": {
            "Institution": "Ohio State University College of Medicine",
            "Institution-Link": "https://medicine.osu.edu/"
        },
        "Campus": "Columbus, Ohio",
        "Country": "US",
        "Score": "72.33"
    },
    {
        "Rank": "99",
        "Institution": {
            "Institution": "School of Medicine at Aristotle University",
            "Institution-Link": "https://www.med.auth.gr/en"
        },
        "Campus": "Thessaloniki",
        "Country": "Greece",
        "Score": "72.03"
    },
    {
        "Rank": "100",
        "Institution": {
            "Institution": "Medical University of Vienna",
            "Institution-Link": "https://www.meduniwien.ac.at/"
        },
        "Campus": "Vienna",
        "Country": "Austria",
        "Score": "72.03"
    }
]