[
    {
        "S.No.": "1.",
        "Name of the Organisation": "Board of Apprenticeship Training(BOAT) Western Region, New Admn. Building,2nd Floor, ATI Campus,Sion-Trombay Road, Sion, Mumbai - 400022",
        "Website": "http://www.apprentice-engineer.com/"
    },
    {
        "S.No.": "2.",
        "Name of the Organisation": "Board of Apprenticeship Training (BOAT) CIT Campus, Taramani,Chennai - 600 113",
        "Website": "http://boat-srp.com"
    },
    {
        "S.No.": "3.",
        "Name of the Organisation": "Board of Apprenticeship Training (BOAT) Plot No.16, Block-1-A, Lakhanpur, GT Road, Kanpur - 208024",
        "Website": "http://boatnr.org/"
    },
    {
        "S.No.": "4.",
        "Name of the Organisation": "Board of Practical Training (BOPT) Eastern Region Block EA, Sector I (OPP. Labony Estate) PO Salt Lake City, Kolkata - 700064",
        "Website": "http://www.bopter.gov.in/"
    }
]