[
    {
        "S. No.": "1.",
        "Institutions": "School of Planning & Architecture Vijaywada, Andhra Pradesh (Id: U-0627)"
    },
    {
        "S. No.": "2.",
        "Institutions": "National Institute of Technology Arunachal Pradesh (Id: U-0615)"
    },
    {
        "S. No.": "3.",
        "Institutions": "Indian Institute of Technology, Guwahati,Assam (Id: U-0053)"
    },
    {
        "S. No.": "4.",
        "Institutions": "National Institute of Technology, Silchar, Assam (Id: U-0055)"
    },
    {
        "S. No.": "5.",
        "Institutions": "All India Institute of Medical Sciences, Patna, Bihar (Id: U-0686)"
    },
    {
        "S. No.": "6.",
        "Institutions": "Indian Institute of Technology, Patna, Bihar (Id: U-0064)"
    },
    {
        "S. No.": "7.",
        "Institutions": "National Institute of Technology, Patna, Bihar (Id: U-0072)"
    },
    {
        "S. No.": "8.",
        "Institutions": "Indian Institute of Engineering Science and Technology, Shibpur, West Bengal"
    },
    {
        "S. No.": "9.",
        "Institutions": "All India Institute of Medical Sciences, Raipur, Chhatisgarh (Id: U-0690)"
    },
    {
        "S. No.": "10.",
        "Institutions": "National Institute of Technology, Raipur, Chhatisgarh (Id: U-0092)"
    },
    {
        "S. No.": "11.",
        "Institutions": "All India Institute of Medical Sciences, Delhi (Id: U-0096)"
    },
    {
        "S. No.": "12.",
        "Institutions": "Indian Institute of Technology, Delhi (Id: U-0100)"
    },
    {
        "S. No.": "13.",
        "Institutions": "National Institute of Technology, Delhi (Id: U-0622)"
    },
    {
        "S. No.": "14.",
        "Institutions": "School of Planning & Architecture, New Delhi (Id: U-0116)"
    },
    {
        "S. No.": "15.",
        "Institutions": "National Institute of Technology, Goa (Id: U-0620)"
    },
    {
        "S. No.": "16.",
        "Institutions": "Indian Institute of Technology, Gandhinagar, Gujarat (Id: U-0139)"
    },
    {
        "S. No.": "17.",
        "Institutions": "Sardar Vallabhbhai National Institute of Technology, Surat, Gujarat (Id: U-0149)"
    },
    {
        "S. No.": "18.",
        "Institutions": "National Institute of Technology, Kurukshetra, Haryana (Id: U-0172)"
    },
    {
        "S. No.": "19.",
        "Institutions": "Indian Institute of Technology, Mandi,Himachal Pradesh (Id: U-0184)"
    },
    {
        "S. No.": "20.",
        "Institutions": "National Institute of Technology, Hamirpur, Himachal Pradesh (Id: U-0189)"
    },
    {
        "S. No.": "21.",
        "Institutions": "National Institute of Technology, Srinagar, Jammu and Kashmir (Id: U-0197)"
    },
    {
        "S. No.": "22.",
        "Institutions": "National Institute of Technology, Jamshedpur, Jharkhand (Id: U-0207)"
    },
    {
        "S. No.": "23.",
        "Institutions": "National Institute of Technology, Karnataka, Karnataka (Id: U-0237)"
    },
    {
        "S. No.": "24.",
        "Institutions": "Indian Institute of Science Education & Research (IISER), Thiruvananthapuram, Kerala (Id: U-0254)"
    },
    {
        "S. No.": "25.",
        "Institutions": "National Institute of Technology, Calicut, Kerala (Id: U-0263)"
    },
    {
        "S. No.": "26.",
        "Institutions": "Sree Chitra Tirunal Institute for Medical Sciences and Technology, Thiruvananthapuram, Kerala (Id: U-0266)"
    },
    {
        "S. No.": "27.",
        "Institutions": "All India Institute of Medical Sciences, Bhopal, Madhya Pradesh (Id: U-0687)"
    },
    {
        "S. No.": "28.",
        "Institutions": "Atal Bihari Vajpayee Indian Institute of Information Technology and Management, Gwalior, Madhya Pradesh (Id: U-0267)"
    },
    {
        "S. No.": "29.",
        "Institutions": "Indian Institute of Science Education & Research (IISER), Bhopal, Madhya Pradesh (Id: U-0272)"
    },
    {
        "S. No.": "30.",
        "Institutions": "Indian Institute of Technology, Indore, Madhya Pradesh (Id: U-0273)"
    },
    {
        "S. No.": "31.",
        "Institutions": "Maulana Azad National Institute of Technology, Bhopal, Madhya Pradesh (Id: U-0284)"
    },
    {
        "S. No.": "32.",
        "Institutions": "Pandit Dwarka Prasad Mishra Indian Institute of Information Technology & Manufacturing , Jabalpur, Madhya Pradesh (Id: U-0286)"
    },
    {
        "S. No.": "33.",
        "Institutions": "School of Planning & Architecture Bhopal, Madhya Pradesh (Id: U-0626)"
    },
    {
        "S. No.": "34.",
        "Institutions": "Indian Institute of Science Education & Research (IISER), Pune, Maharashtra (Id: U-0305)"
    },
    {
        "S. No.": "35.",
        "Institutions": "Indian Institute of Technology, Mumbai, Maharashtra (Id: U-0306)"
    },
    {
        "S. No.": "36.",
        "Institutions": "Visvesvaraya National Institute of Technology, Nagpur, Maharashtra (Id: U-0334)"
    },
    {
        "S. No.": "37.",
        "Institutions": "National Institute of Technology, Manipur (Id: U-0613)"
    },
    {
        "S. No.": "38.",
        "Institutions": "National Institute of Technology, Meghalaya (Id: U-0619)"
    },
    {
        "S. No.": "39.",
        "Institutions": "National Institute of Technology, Mizoram (Id: U-0617)"
    },
    {
        "S. No.": "40.",
        "Institutions": "National Institute of Technology, Nagaland (Id: U-0618)"
    },
    {
        "S. No.": "41.",
        "Institutions": "All India Institute of Medical Sciences, Bhubaneshwar, Odisha (Id: U-0688)"
    },
    {
        "S. No.": "42.",
        "Institutions": "Indian Institute of Technology, Bhubaneshwar, Odisha (Id: U-0355)"
    },
    {
        "S. No.": "43.",
        "Institutions": "National Institute of Technology, Rourkela, Odisha (Id: U-0357)"
    },
    {
        "S. No.": "44.",
        "Institutions": "Jawaharlal Institute of Post Graduate Medical Education & Research, Puducherry (Id: U-0368)"
    },
    {
        "S. No.": "45.",
        "Institutions": "National Institute of Technology, Puducherry (Id: U-0621)"
    },
    {
        "S. No.": "46.",
        "Institutions": "Dr. B. R. Ambedkar National Institute of Technology, Jalandhar, Punjab (Id: U-0374)"
    },
    {
        "S. No.": "47.",
        "Institutions": "Indian Institute of Science Education & Research (IISER), Mohali, Punjab (Id: U-0377)"
    },
    {
        "S. No.": "48.",
        "Institutions": "Indian Institute of Technology, Ropar, Punjab (Id: U-0378)"
    },
    {
        "S. No.": "49.",
        "Institutions": "National Institute of Pharmaceutical, Educational and Research, Mohali, Punjab (Id: U-0380)"
    },
    {
        "S. No.": "50.",
        "Institutions": "All India Institute of Medical Sciences, JODHPUR, Rajasthan (Id: U-0689)"
    },
    {
        "S. No.": "51.",
        "Institutions": "Indian Institute of Technology, Jodhpur, Rajasthan (Id: U-0395)"
    },
    {
        "S. No.": "52.",
        "Institutions": "Malviya National Institute of Technology, Jaipur, Rajasthan (Id: U-0410)"
    },
    {
        "S. No.": "53.",
        "Institutions": "National Institute of Technology, Sikkim (Id: U-0614)"
    },
    {
        "S. No.": "54.",
        "Institutions": "Academy of Scientific & Innovative Research, Ghaziabad, Uttar Pradesh (Id: U-0713)"
    },
    {
        "S. No.": "55.",
        "Institutions": "Dakshina Bharat Hindi Prachar Sabha, Tamil Nadu (Id: U-0452)"
    },
    {
        "S. No.": "56.",
        "Institutions": "Indian Institute of Information Technology, Design & Manufacturing, Kancheepuram, Tamil Nadu (Id: U-0455)"
    },
    {
        "S. No.": "57.",
        "Institutions": "Indian Institute of Technology, Chennai, Tamil Nadu (Id: U-0456)"
    },
    {
        "S. No.": "58.",
        "Institutions": "National Institute of Technology, Tiruchirapalli, Tamil Nadu (Id: U-0467)"
    },
    {
        "S. No.": "59.",
        "Institutions": "Rajiv Gandhi National Instiute of Youth Development, Sriperumbudur, Tamil Nadu (Id: U-0472)"
    },
    {
        "S. No.": "60.",
        "Institutions": "Indian Institute of Technology, Hyderabad, Telangana (Id: U-0013)"
    },
    {
        "S. No.": "61.",
        "Institutions": "National Institute of Technology, Warangal, Telangana (Id: U-0025)"
    },
    {
        "S. No.": "62.",
        "Institutions": "National Institute of Technology, Agartala, Tripura (Id: U-0493)"
    },
    {
        "S. No.": "63.",
        "Institutions": "Indian Institute of Information Technology, Allahabad, Uttar Pradesh (Id: U-0516)"
    },
    {
        "S. No.": "64.",
        "Institutions": "Indian Institute of Technology (Banaras Hindu University), Varanasi, Uttar Pradesh (Id: U-0701)"
    },
    {
        "S. No.": "65.",
        "Institutions": "Indian Institute of Technology, Kanpur, Uttar Pradesh (Id: U-0517)"
    },
    {
        "S. No.": "66.",
        "Institutions": "Motilal Nehru Institute of Technology, Allahabad, Uttar Pradesh (Id: U-0530)"
    },
    {
        "S. No.": "67.",
        "Institutions": "Rajiv Gandhi Institute of Petroleum Technology, Rae Bareli, Uttar Pradesh (Id: U-0535)"
    },
    {
        "S. No.": "68.",
        "Institutions": "All India Institute of Medical Sciences, Rishikesh, Uttrakhand (Id: U-0691)"
    },
    {
        "S. No.": "69.",
        "Institutions": "Indian Institute of Technology, Roorkee, Uttrakhand (Id: U-0560)"
    },
    {
        "S. No.": "70.",
        "Institutions": "National Institute of Technology, Uttarakhand (Id: U-0616)"
    },
    {
        "S. No.": "71.",
        "Institutions": "Indian Institute of Science Education & Research (IISER), Kolkata, West Bengal (Id: U-0572)"
    },
    {
        "S. No.": "72.",
        "Institutions": "Indian Institute of Technology, Kharagpur, West Bengal (Id: U-0573)"
    },
    {
        "S. No.": "73.",
        "Institutions": "Indian Statistical Institute, Kolkata, West Bengal (Id: U-0574)"
    },
    {
        "S. No.": "74.",
        "Institutions": "National Institute of Technology, Durgapur, West Bengal (Id: U-0577)"
    },
    {
        "S. No.": "75.",
        "Institutions": "Footwear Design & Development Institute, Noida, Uttar Pradesh (website (link is external))"
    },
    {
        "S. No.": "76.",
        "Institutions": "Indian Institute of Information Technology, Sri City, Chittoor, Andhra Pradesh"
    },
    {
        "S. No.": "77.",
        "Institutions": "Indian Institute of Information Technology, Guwahati, Assam"
    },
    {
        "S. No.": "78.",
        "Institutions": "Indian Institute of Information Technology, Vadodara, Gujarat"
    },
    {
        "S. No.": "79.",
        "Institutions": "Indian Institute of Information Technology, Sonepat, Haryana"
    },
    {
        "S. No.": "80.",
        "Institutions": "Indian Institute of Information Technology, Una, Himachal Pradesh"
    },
    {
        "S. No.": "81.",
        "Institutions": "Indian Institute of Information Technology, Ranchi, Jharkhand"
    },
    {
        "S. No.": "82.",
        "Institutions": "Indian Institute of Information Technology, Dharwad, Karnataka"
    },
    {
        "S. No.": "83.",
        "Institutions": "Indian Institute of Information Technology, Kottayam, Kerala"
    },
    {
        "S. No.": "84.",
        "Institutions": "Indian Institute of Information Technology, Nagpur, Maharashtra"
    },
    {
        "S. No.": "85.",
        "Institutions": "Indian Institute of Information Technology, Pune, Maharashtra"
    },
    {
        "S. No.": "86.",
        "Institutions": "Indian Institute of Information Technology, Senapati, Manipur"
    },
    {
        "S. No.": "87.",
        "Institutions": "Indian Institute of Information Technology, Kota, Rajasthan"
    },
    {
        "S. No.": "88.",
        "Institutions": "Indian Institute of Information Technology, Tiruchirapalli, Tamil Nadu"
    },
    {
        "S. No.": "89.",
        "Institutions": "Indian Institute of Information Technology, Lucknow, Uttar Pradesh"
    },
    {
        "S. No.": "90.",
        "Institutions": "Indian Institute of Information Technology, Kalyani, West Bengal"
    },
    {
        "S. No.": "91.",
        "Institutions": "Indian Institute of Information Technology, Design & Manufacturing, Kurnool, Andhra Pradesh"
    },
    {
        "S. No.": "92.",
        "Institutions": "National Institute of Design (NID), Ahmedabad (website (link is external))"
    },
    {
        "S. No.": "93.",
        "Institutions": "National Institute of Design (NID), Gandhinagar"
    },
    {
        "S. No.": "94.",
        "Institutions": "National Institute of Design (NID), Bengaluru"
    },
    {
        "S. No.": "95.",
        "Institutions": "Indian Institute of Petroleum and Energy (IIPE), Andhra Pradesh"
    },
    {
        "S. No.": "96.",
        "Institutions": "Nalanda University, Nalanda, Bihar"
    },
    {
        "S. No.": "97.",
        "Institutions": "Indian Institute of Technology, Palakkad (Id: U-0878)(website (link is external))"
    },
    {
        "S. No.": "98.",
        "Institutions": "Indian Institute of Technology, Jammu"
    },
    {
        "S. No.": "99.",
        "Institutions": "Indian Institute of Technology, Dharwad"
    },
    {
        "S. No.": "100.",
        "Institutions": "Indian Institute of Technology, Goa"
    },
    {
        "S. No.": "101.",
        "Institutions": "Indian Institute of Technology, Bhilai"
    },
    {
        "S. No.": "102.",
        "Institutions": "Indian Institute of Technology, Tirupati"
    },
    {
        "S. No.": "103.",
        "Institutions": "Indian Institute of Technology-ISM,  Dhanbad"
    },
    {
        "S. No.": "104.",
        "Institutions": "Indian Institute of Information Technology, Agartala"
    },
    {
        "S. No.": "105.",
        "Institutions": "Indian Institute of Information Technology, Bhagalpur"
    },
    {
        "S. No.": "106.",
        "Institutions": "Indian Institute of Information Technology, Bhopal"
    },
    {
        "S. No.": "107.",
        "Institutions": "Indian Institute of Information Technology, Raichur"
    },
    {
        "S. No.": "108.",
        "Institutions": "Indian Institute of Information Technology, Surat"
    },
    {
        "S. No.": "109.",
        "Institutions": "Indian Institute of Management, Ahmedabad"
    },
    {
        "S. No.": "110.",
        "Institutions": "Indian Institute of Management, Visakhapatnam"
    },
    {
        "S. No.": "111.",
        "Institutions": "Indian Institute of Management, Bangalore"
    },
    {
        "S. No.": "112.",
        "Institutions": "Indian Institute of Management, Bodhgaya"
    },
    {
        "S. No.": "113.",
        "Institutions": "Indian Institute of Management, Raipur"
    },
    {
        "S. No.": "114.",
        "Institutions": "Indian Institute of Management, Rohtak"
    },
    {
        "S. No.": "115.",
        "Institutions": "Indian Institute of Management, Sirmaur"
    },
    {
        "S. No.": "116.",
        "Institutions": "Indian Institute of Management, Jammu"
    },
    {
        "S. No.": "117.",
        "Institutions": "Indian Institute of Management, Ranchi"
    },
    {
        "S. No.": "118.",
        "Institutions": "Indian Institute of Management, Kozhikode"
    },
    {
        "S. No.": "119.",
        "Institutions": "Indian Institute of Management, Kolkata"
    },
    {
        "S. No.": "120.",
        "Institutions": "Indian Institute of Management, Lucknow"
    },
    {
        "S. No.": "121.",
        "Institutions": "Indian Institute of Management, Indore"
    },
    {
        "S. No.": "122.",
        "Institutions": "Indian Institute of Management, Nagpur"
    },
    {
        "S. No.": "123.",
        "Institutions": "Indian Institute of Management, Sambalpur"
    },
    {
        "S. No.": "124.",
        "Institutions": "Indian Institute of Management, Amritsar"
    },
    {
        "S. No.": "125.",
        "Institutions": "Indian Institute of Management, Udaipur"
    },
    {
        "S. No.": "126.",
        "Institutions": "Indian Institute of Management, Shillong"
    },
    {
        "S. No.": "127.",
        "Institutions": "Indian Institute of Management, Tiruchirappalli"
    },
    {
        "S. No.": "128.",
        "Institutions": "Indian Institute of Management, Kashipur"
    },
    {
        "S. No.": "129.",
        "Institutions": "Indian Institute of Science Education & Research(IISER), Berhampur"
    },
    {
        "S. No.": "130.",
        "Institutions": "Indian Institute of Science Education & Research(IISER), Tirupati"
    },
    {
        "S. No.": "NOTE",
        "Institutions": "* AISHE Code is provided within ( ) braces"
    }
]