[
    {
        "S.No.": "1.",
        "Name of the Organisation": "Central Hindi Directorate R.K.Puram, New Delhi",
        "Website": "-"
    },
    {
        "S.No.": "2.",
        "Name of the Organisation": "Central Institute of Indian Languages Manasagangotri, Mysore - 570 006",
        "Website": "-"
    },
    {
        "S.No.": "3.",
        "Name of the Organisation": "Commission for Scientific and Technical Terminology R.K.Puram, New Delhi",
        "Website": "-"
    }
]