[
    {
        "S.No.": "1.",
        "Name of the Organisation": "National Institute of Educational Planning and Administration (NIEPA) 17-B, Sri Aurobindo Marg, NIE Camp, New Delhi - 110016Submit Your Grievances for NUEPA",
        "Website": "http://www.niepa.ac.in"
    }
]