{
    "MP3-Music": {
        "Thirukural": {
            "Volume 1": "https://www.cict.in/audios/thirukural-1.mp3",
            "Volume 2": "https://www.cict.in/audios/thirukural-2.mp3",
            "Volume 3": "https://www.cict.in/audios/thirukural-3.mp3",
            "Volume 4": "https://www.cict.in/audios/thirukural-4.mp3",
            "Volume 5": "https://www.cict.in/audios/thirukural-5.mp3",
            "Volume 6": "https://www.cict.in/audios/thirukural-6.mp3"
        },
        "PathuPaatu": {
            "Volume 1": "https://www.cict.in/audios/pathuPaatu-1.mp3",
            "Volume 2": "https://www.cict.in/audios/pathuPaatu-2.mp3",
            "Volume 3": "https://www.cict.in/audios/pathuPaatu-3.mp3",
            "Volume 4": "https://www.cict.in/audios/pathuPaatu-4.mp3",
            "Volume 5": "https://www.cict.in/audios/pathuPaatu-5.mp3"
        },
        "Tolkappiyam": {
            "Volume 1": "https://www.cict.in/audios/tolkappiyam-1.mp3",
            "Volume 2": "https://www.cict.in/audios/tolkappiyam-2.mp3",
            "Volume 3": "https://www.cict.in/audios/tolkappiyam-3.mp3",
            "Volume 4": "https://www.cict.in/audios/tolkappiyam-4.mp3"
        }
    },
    "Video": {
        "Kallanai - Water Management of Tamilnadu": "https://www.cict.in/videos/kallanai.mp4",
        "Sangam Literature: A corroborative study of Archaeological Evidence": "https://www.cict.in/videos/Sangam.mp4",
        "Adhichanallur mound excavation - 2021 (part 1)": "https://www.cict.in/videos/Adhichanallur%20part1.mp4",
        "Adhichanallur mound excavation - 2021 (part 2)": "https://www.cict.in/videos/Adhichanallur%20part2.mp4",
        "Tirukkural-Manipuri Dance": "https://www.cict.in/videos/Manipuri%20Dance.mp4",
        "Others": "https://www.cict.in/video.php"
    },
    "Newsletters": [
        "https://www.cict.in/pdf/Tamil-News-Letter-1.pdf",
        "https://www.cict.in/pdf/Tamil-News-Letter-2.pdf",
        "https://www.cict.in/pdf/Tamil-News-Letter-3.pdf",
        "https://www.cict.in/pdf/Tamil-News-Letter-4.pdf",
        "https://www.cict.in/pdf/Tamil-News-Letter-5.pdf",
        "https://www.cict.in/pdf/Tamil-News-Letter-6.pdf",
        "https://www.cict.in/pdf/Tamil-News-Letter-7.pdf",
        "https://www.cict.in/pdf/Tamil-News-Letter-8.pdf",
        "https://www.cict.in/pdf/Tamil-News-Letter-9.pdf",
        "https://www.cict.in/pdf/10TH%20CHEMMOZHI%20TAMIL.pdf",
        "https://www.cict.in/pdf/11TH%20CHEMMOZHI%20TAMIL.pdf",
        "https://www.cict.in/pdf/12TH%20CHEMMOZHI%20TAMIL.pdf",
        "https://www.cict.in/pdf/13TH%20CHEMMOZHI%20TAMIL.pdf",
        "https://www.cict.in/pdf/14th%20chemmozhi%20tamil.pdf"
    ],
    "Annual-Reports": {
        "2018-19 Annual Report - Audited Accounts": "https://www.cict.in/pdf/AR%20&%20AA%202018-2019.pdf",
        "2017-18 Annual Report - Audited Accounts": "https://www.cict.in/pdf/2017-18%20Annual%20Report%20-%20Audited%20Accounts.pdf",
        "2016-17 Annual Report - Audited Accounts": "https://www.cict.in/pdf/2016-17%20Annual%20Report%20-%20Audited%20Accounts.pdf",
        "2015 -16 Annual Report": "https://www.cict.in/pdf/ANNUAL%20REPORT%202015-16.pdf",
        "2015-16 Audited Accounts": "https://www.cict.in/pdf/AUDITED%20ACCOUNTS%202015-16.pdf",
        "2014 -15 Annual Report": "https://www.cict.in/pdf/2014-15%20Annul%20Report.pdf",
        "2014-15 Audited Accounts": "https://www.cict.in/pdf/2014-15%20Audioted%20Accounts.pdf",
        "2013 -14 Annual Report": "https://www.cict.in/pdf/2013-14%20Annual%20Report.pdf",
        "2013-14 Audited Acounts": "https://www.cict.in/pdf/2013-14%20Audited%20Acounts.pdf",
        "2012-13 Annual Report - Audited Accounts": "https://www.cict.in/pdf/2012-13%20Annual%20Report%20-%20Audited%20Accounts.pdf",
        "2011-12 Annual Report - Audited Accounts": "https://www.cict.in/pdf/2011-12%20Annual%20Report%20-%20Audited%20Accounts.pdf",
        "2010-11 Annual Report - Audited Accounts": "https://www.cict.in/pdf/2010-11%20Annual%20Report%20-%20Audited%20Accounts.pdf",
        "2009-10 Annual Report - Audited Accounts": "https://www.cict.in/pdf/2009-10%20Annual%20Report%20-%20Audited%20Accounts.pdf",
        "2008-09 Annual Report - Audited Accounts": "https://www.cict.in/pdf/2008-09%20Annual%20Report%20-%20Audited%20Accounts.pdf"
    }
}