{
    "Weblink": "https://hindivishwa.org/contentdtl.aspx?category=7",
    "विश्वविद्यालय द्वारा प्रकाशित संचयिताएं": [
        {
            "क्र.सं.": "1.",
            "पुस्तकों के नाम": "हजारी प्रसाद द्विवेदी संचयिता",
            "लेखक/संपादक": "राधावल्लभ त्रिपाठी",
            "प्रकाशक": "वाणी प्रकाशन, दिल्ली",
            "वर्ष": "2001",
            "मूल्य": "400/-"
        },
        {
            "क्र.सं.": "2.",
            "पुस्तकों के नाम": "अज्ञेय संचयिता",
            "लेखक/संपादक": "नंदकिशोर आचार्य",
            "प्रकाशक": "राजकमल प्रकाशन, दिल्ली",
            "वर्ष": "2001",
            "मूल्य": "395/-"
        },
        {
            "क्र.सं.": "3.",
            "पुस्तकों के नाम": "सूर्यकांत त्रिपाठी निराला संचयिता",
            "लेखक/संपादक": "डॉ. रमेशचन्द्र शाह",
            "प्रकाशक": "वाणी प्रकाशन, दिल्ली",
            "वर्ष": "2001",
            "मूल्य": "395/-"
        },
        {
            "क्र.सं.": "4.",
            "पुस्तकों के नाम": "महादेवी वर्मा संचयिता",
            "लेखक/संपादक": "निर्मला जैन",
            "प्रकाशक": "वाणी प्रकाशन, दिल्ली",
            "वर्ष": "2002",
            "मूल्य": "400/-"
        },
        {
            "क्र.सं.": "5.",
            "पुस्तकों के नाम": "मैथलीशरण गुप्त संचयिता",
            "लेखक/संपादक": "नंदकिशोर नवल",
            "प्रकाशक": "राजकमल प्रकाशन, दिल्ली",
            "वर्ष": "2002",
            "मूल्य": "275/-"
        },
        {
            "क्र.सं.": "6.",
            "पुस्तकों के नाम": "जैनेन्द्र कुमार संचयिता",
            "लेखक/संपादक": "डॉ. ज्योतिष जोशी",
            "प्रकाशक": "पूर्वोदय प्रकाशन, दिल्ली",
            "वर्ष": "2002",
            "मूल्य": "425/-"
        },
        {
            "क्र.सं.": "7.",
            "पुस्तकों के नाम": "त्रिलोचन संचयिता",
            "लेखक/संपादक": "ध्रुव शुक्ल",
            "प्रकाशक": "वाणी प्रकाशन, दिल्ली",
            "वर्ष": "2002",
            "मूल्य": "375/-"
        },
        {
            "क्र.सं.": "8.",
            "पुस्तकों के नाम": "रामचंद्र शुक्ल संचयिता",
            "लेखक/संपादक": "रामचंद्र तिवारी",
            "प्रकाशक": "वाणी प्रकाशन, दिल्ली",
            "वर्ष": "2003",
            "मूल्य": "500/-"
        },
        {
            "क्र.सं.": "9.",
            "पुस्तकों के नाम": "श्रीकांत वर्मा संचयिता",
            "लेखक/संपादक": "उदयन वाजपेयी",
            "प्रकाशक": "राजकमल प्रकाशन, दिल्ली",
            "वर्ष": "2003",
            "मूल्य": "325/-"
        },
        {
            "क्र.सं.": "10.",
            "पुस्तकों के नाम": "भवानी प्रसाद संचयिता",
            "लेखक/संपादक": "प्रभात त्रिपाठी",
            "प्रकाशक": "राजकमल प्रकाशन, दिल्ली",
            "वर्ष": "2003",
            "मूल्य": "450/-"
        },
        {
            "क्र.सं.": "11.",
            "पुस्तकों के नाम": "रघुवीर सहाय संचयिता&Amp;Amp;Nbsp;",
            "लेखक/संपादक": "कृष्ण कुमार",
            "प्रकाशक": "राजकमल प्रकाशन, दिल्ली",
            "वर्ष": "2003",
            "मूल्य": "225/-"
        },
        {
            "क्र.सं.": "12.",
            "पुस्तकों के नाम": "नामवर सिंह संचयिता",
            "लेखक/संपादक": "नंदकिशोर नवल",
            "प्रकाशक": "राजकमल प्रकाशन, दिल्ली",
            "वर्ष": "2003",
            "मूल्य": "350/-"
        },
        {
            "क्र.सं.": "13",
            "पुस्तकों के नाम": "फणीश्वरनाथ रेणु संचयिता",
            "लेखक/संपादक": "सुवास कुमार",
            "प्रकाशक": "मेधा बुक्स, दिल्ली",
            "वर्ष": "2003",
            "मूल्य": "590/-"
        },
        {
            "क्र.सं.": "14.",
            "पुस्तकों के नाम": "केदारनाथ अग्रवाल संचयिता (HD)",
            "लेखक/संपादक": "डॉ. अशोक त्रिपाठी",
            "प्रकाशक": "साहित्य भंडार, इलाहाबाद",
            "वर्ष": "2011",
            "मूल्य": "500/-"
        },
        {
            "क्र.सं.": "15.",
            "पुस्तकों के नाम": "केदारनाथ अग्रवाल संचयिता (PB)",
            "लेखक/संपादक": "डॉ. अशोक त्रिपाठी",
            "प्रकाशक": "साहित्य भंडार, इलाहाबाद",
            "वर्ष": "2011",
            "मूल्य": "&Nbsp;"
        },
        {
            "क्र.सं.": "16.",
            "पुस्तकों के नाम": "स्वामी अछूतानंद हरिहर संचयिता",
            "लेखक/संपादक": "कँवल भारती",
            "प्रकाशक": "स्वराज प्रकाशन, दिल्ली",
            "वर्ष": "2011",
            "मूल्य": "450/-"
        },
        {
            "क्र.सं.": "17.",
            "पुस्तकों के नाम": "उपाध्याय श्री बद्रीनारायण चौधरी प्रेमघन",
            "लेखक/संपादक": "डॉ. भवदेव पाण्डेय",
            "प्रकाशक": "शिल्पायन, दिल्ली",
            "वर्ष": "2012",
            "मूल्य": "375/-"
        },
        {
            "क्र.सं.": "18.",
            "पुस्तकों के नाम": "चंद्रकुँवर वर्त्वाल संचयिता",
            "लेखक/संपादक": "गंगा प्रसाद विमल",
            "प्रकाशक": "विजया बुक्स, दिल्ली",
            "वर्ष": "2012",
            "मूल्य": "275/-"
        },
        {
            "क्र.सं.": "19.",
            "पुस्तकों के नाम": "सूर संचयिता",
            "लेखक/संपादक": "प्रो. मैनेजर पाण्डेय",
            "प्रकाशक": "राजकमल प्रकाशन",
            "वर्ष": "2012",
            "मूल्य": "250/-"
        },
        {
            "क्र.सं.": "20.",
            "पुस्तकों के नाम": "कमलेश्वर संचयिता",
            "लेखक/संपादक": "गंगा प्रसाद विमल",
            "प्रकाशक": "किताबघर प्रकाशन, दिल्ली",
            "वर्ष": "2013",
            "मूल्य": "850/-"
        },
        {
            "क्र.सं.": "21.",
            "पुस्तकों के नाम": "निर्मला जैन संचयिता",
            "लेखक/संपादक": "रामेश्वर राय",
            "प्रकाशक": "वाणी प्रकाशन, दिल्ली",
            "वर्ष": "2013",
            "मूल्य": "495/-"
        },
        {
            "क्र.सं.": "22.",
            "पुस्तकों के नाम": "रामविलास शर्मा संचयिता",
            "लेखक/संपादक": "मुरली मनोहर प्रसाद सिंह",
            "प्रकाशक": "आधार प्रकाशन, हरियाणा",
            "वर्ष": "2014",
            "मूल्य": "500/-"
        },
        {
            "क्र.सं.": "23.",
            "पुस्तकों के नाम": "प्रतापनारायण मिश्र संचयिता",
            "लेखक/संपादक": "ओमप्रकाश सिंह",
            "प्रकाशक": "शिल्पायन, दिल्ली",
            "वर्ष": "2014",
            "मूल्य": "350/-"
        }
    ],
    "विश्वविद्यालय द्वारा प्रकाशित पुस्तकें": [
        {
            "क्र.सं.": "24.",
            "पुस्तकों के नाम": "द्विज देव ग्रंथावली",
            "लेखक/संपादक": "विद्यानिवास मिश्र",
            "प्रकाशक": "प्रभात प्रकाशन, दिल्ली",
            "वर्ष": "2000",
            "मूल्य": "200/-"
        },
        {
            "क्र.सं.": "25.",
            "पुस्तकों के नाम": "द फर्स्ट पब्लिश एन्थोलॉजी ऑफ हिंदी पोइट्स",
            "लेखक/संपादक": "इमरे बंगा",
            "प्रकाशक": "रेनबो प्रकाशन",
            "वर्ष": "2000",
            "मूल्य": "225/-"
        },
        {
            "क्र.सं.": "26.",
            "पुस्तकों के नाम": "कविता का शुक्लपक्ष",
            "लेखक/संपादक": "बच्चन सिंह/अवधेश प्रधान",
            "प्रकाशक": "राजकमल प्रकाशन, दिल्ली",
            "वर्ष": "2001",
            "मूल्य": "325/-"
        },
        {
            "क्र.सं.": "27.",
            "पुस्तकों के नाम": "पंत सहचर",
            "लेखक/संपादक": "अशोक वाजपेयी/अपूर्वानंद",
            "प्रकाशक": "वाणी प्रकाशन, दिल्ली",
            "वर्ष": "2001",
            "मूल्य": "395/-"
        },
        {
            "क्र.सं.": "28.",
            "पुस्तकों के नाम": "राकेश समग्र",
            "लेखक/संपादक": "नंदकिशोर नवल",
            "प्रकाशक": "वाणी प्रकाशन, दिल्ली",
            "वर्ष": "2001",
            "मूल्य": "395/-"
        },
        {
            "क्र.सं.": "29.",
            "पुस्तकों के नाम": "अँधेरे में",
            "लेखक/संपादक": "कृष्ण बलदेव वैद",
            "प्रकाशक": "रेनबो प्रकाशन",
            "वर्ष": "2001",
            "मूल्य": "150/-"
        },
        {
            "क्र.सं.": "30.",
            "पुस्तकों के नाम": "समक्ष",
            "लेखक/संपादक": "आलोक राय/मुश्ताक अली",
            "प्रकाशक": "हंस प्रकाशन",
            "वर्ष": "2002",
            "मूल्य": "375/-"
        },
        {
            "क्र.सं.": "31.",
            "पुस्तकों के नाम": "हिंदी की जनपदीय कविता",
            "लेखक/संपादक": "विद्यानिवास मिश्र",
            "प्रकाशक": "लोकभारती प्रकाशन, इलाहाबाद",
            "वर्ष": "2002",
            "मूल्य": "600/-"
        },
        {
            "क्र.सं.": "32.",
            "पुस्तकों के नाम": "कवि नायक अज्ञेय",
            "लेखक/संपादक": "इला डालमिया कोइराला",
            "प्रकाशक": "प्रभात प्रकाशन, दिल्ली",
            "वर्ष": "2002",
            "मूल्य": "100/-"
        },
        {
            "क्र.सं.": "33.",
            "पुस्तकों के नाम": "छंद छंद पर कुमकुम",
            "लेखक/संपादक": "वागीश शुक्ल",
            "प्रकाशक": "प्रभात प्रकाशन, दिल्ली",
            "वर्ष": "2002",
            "मूल्य": "300/-"
        },
        {
            "क्र.सं.": "34.",
            "पुस्तकों के नाम": "स्वच्छंद",
            "लेखक/संपादक": "डॉ. प्रभात रंजन",
            "प्रकाशक": "राजकमल प्रकाशन, दिल्ली",
            "वर्ष": "2002",
            "मूल्य": "175/-"
        },
        {
            "क्र.सं.": "35.",
            "पुस्तकों के नाम": "अन्त: करण का आयतन",
            "लेखक/संपादक": "अशोक वाजपेयी",
            "प्रकाशक": "वाणी प्रकाशन, दिल्ली",
            "वर्ष": "2003",
            "मूल्य": "395/-"
        },
        {
            "क्र.सं.": "36.",
            "पुस्तकों के नाम": "स्मृति, मति और प्रज्ञा\n\n\t\t\tधर्मपाल से उदयन वाजपेयी की बातचीत",
            "लेखक/संपादक": "उदयन वाजपेयी",
            "प्रकाशक": "वाणी प्रकाशन, दिल्ली",
            "वर्ष": "2003",
            "मूल्य": "125/-"
        },
        {
            "क्र.सं.": "37.",
            "पुस्तकों के नाम": "सूची पत्रक",
            "लेखक/संपादक": "तादेउष रुज़ेविच",
            "प्रकाशक": "पूर्वोदया प्रकाशन, दिल्ली",
            "वर्ष": "2003",
            "मूल्य": "100/-"
        },
        {
            "क्र.सं.": "38.",
            "पुस्तकों के नाम": "पूज्य पिता के सहज सत्य पर",
            "लेखक/संपादक": "ध्रुव शुक्ल",
            "प्रकाशक": "वाग्देवी प्रकाशन, बीकानेर",
            "वर्ष": "2003",
            "मूल्य": "90/-"
        },
        {
            "क्र.सं.": "39.",
            "पुस्तकों के नाम": "उर्दू साहित्य का देवनागरी में लिपिकरण",
            "लेखक/संपादक": "वागीश शुक्ल",
            "प्रकाशक": "वाणी प्रकाशन, दिल्ली",
            "वर्ष": "2003",
            "मूल्य": "195/-"
        },
        {
            "क्र.सं.": "40.",
            "पुस्तकों के नाम": "अन्तर्लोक",
            "लेखक/संपादक": "प्रो. नंदकिशोर आचार्य",
            "प्रकाशक": "राजकमल प्रकाशन, दिल्ली",
            "वर्ष": "2003",
            "मूल्य": "250/-"
        },
        {
            "क्र.सं.": "41.",
            "पुस्तकों के नाम": "हिंदी साहित्यशास्त्र",
            "लेखक/संपादक": "नंदकिशोर नवल",
            "प्रकाशक": "वाणी प्रकाशन, दिल्ली",
            "वर्ष": "2003",
            "मूल्य": "300/-"
        },
        {
            "क्र.सं.": "42.",
            "पुस्तकों के नाम": "हिंदी साहित्य का मौखिक इतिहास (चार खण्ड)",
            "लेखक/संपादक": "नीलाभ",
            "प्रकाशक": "म.गां.अं.हि.वि., वर्धा",
            "वर्ष": "2004",
            "मूल्य": "1000/-"
        },
        {
            "क्र.सं.": "43.",
            "पुस्तकों के नाम": "मीराँ संचयन",
            "लेखक/संपादक": "नंदचतुर्वेदी",
            "प्रकाशक": "वाणी प्रकाशन, दिल्ली",
            "वर्ष": "2006",
            "मूल्य": "175/-"
        },
        {
            "क्र.सं.": "44.",
            "पुस्तकों के नाम": "तमिल शैव सन्त सुन्दरम्",
            "लेखक/संपादक": "डॉ. एन. सुंदरम्\n\n\t\t\tरामानुज अस्थाना",
            "प्रकाशक": "म.गां.अं.हि.वि., वर्धा",
            "वर्ष": "2007",
            "मूल्य": "400/-"
        },
        {
            "क्र.सं.": "45.",
            "पुस्तकों के नाम": "आठवॉ विश्व हिंदी सम्मेलन",
            "लेखक/संपादक": "प्रो. जी. गोपीनाथन",
            "प्रकाशक": "म.गां.अं.हि.वि., वर्धा",
            "वर्ष": "2007",
            "मूल्य": "300/-"
        },
        {
            "क्र.सं.": "46.",
            "पुस्तकों के नाम": "निर्मल विमर्श",
            "लेखक/संपादक": "प्रो. जी. गोपीनाथन\n\n\t\t\tरामानुज अस्थाना",
            "प्रकाशक": "म.गा.अं.हि.वि., वर्धा",
            "वर्ष": "2007",
            "मूल्य": "200/-"
        },
        {
            "क्र.सं.": "47.",
            "पुस्तकों के नाम": "तुलनात्मक साहित्य विश्वकोश",
            "लेखक/संपादक": "प्रो. जी. गोपीनाथन",
            "प्रकाशक": "म.गां.अं.हि.वि., वर्धा",
            "वर्ष": "2008",
            "मूल्य": "1700/-"
        },
        {
            "क्र.सं.": "48.",
            "पुस्तकों के नाम": "विश्वभाषा हिंदी की अस्मिता",
            "लेखक/संपादक": "प्रो. जी. गोपीनाथन",
            "प्रकाशक": "म.गां.अं.हि.वि., वर्धा",
            "वर्ष": "2008",
            "मूल्य": "60/-"
        },
        {
            "क्र.सं.": "49.",
            "पुस्तकों के नाम": "पुस्तक और मैं",
            "लेखक/संपादक": "प्रो. जी. गोपीनाथन",
            "प्रकाशक": "म.गां.अं.हि.वि., वर्धा",
            "वर्ष": "2008",
            "मूल्य": "60/-"
        },
        {
            "क्र.सं.": "50.",
            "पुस्तकों के नाम": "हिंदी विमर्श",
            "लेखक/संपादक": "डॉ. डी. एन. प्रसाद",
            "प्रकाशक": "म.गां.अं.हि.वि., वर्धा",
            "वर्ष": "2008",
            "मूल्य": "110/-"
        },
        {
            "क्र.सं.": "51.",
            "पुस्तकों के नाम": "स्त्री विमर्श: भारतीय परिपेक्ष्य",
            "लेखक/संपादक": "के.एम. मालती",
            "प्रकाशक": "वाणी प्रकाशन, दिल्ली",
            "वर्ष": "2010",
            "मूल्य": "300/-"
        },
        {
            "क्र.सं.": "52.",
            "पुस्तकों के नाम": "वाल्ट व्हिटमन: घास की पत्तियां संचयन",
            "लेखक/संपादक": "चंद्रबली सिंह",
            "प्रकाशक": "वाणी प्रकाशन, दिल्ली",
            "वर्ष": "2011",
            "मूल्य": "350/-"
        },
        {
            "क्र.सं.": "53.",
            "पुस्तकों के नाम": "केदार शेष अशेष",
            "लेखक/संपादक": "नरेन्द्र पुण्डरीक",
            "प्रकाशक": "अनामिका प्रकाशन, इलाहाबाद",
            "वर्ष": "2011",
            "मूल्य": "500/-"
        },
        {
            "क्र.सं.": "54.",
            "पुस्तकों के नाम": "एमिलि डिकिन्सन की कविताएं संचयन",
            "लेखक/संपादक": "चंद्रबली सिंह",
            "प्रकाशक": "वाणी प्रकाशन, दिल्ली",
            "वर्ष": "2011",
            "मूल्य": "550/-"
        },
        {
            "क्र.सं.": "55.",
            "पुस्तकों के नाम": "कर्नाटक के शरणों के वचन",
            "लेखक/संपादक": "टी.जी. प्रभाशंकर प्रेमी",
            "प्रकाशक": "स्वराज प्रकाशन, दिल्ली",
            "वर्ष": "2011",
            "मूल्य": "350/-"
        },
        {
            "क्र.सं.": "56.",
            "पुस्तकों के नाम": "प्रेमचंद की शेष रचनाएं",
            "लेखक/संपादक": "डॉ. प्रदीप जैन",
            "प्रकाशक": "राजकमल प्रकाशन, दिल्ली",
            "वर्ष": "2012",
            "मूल्य": "450/-"
        },
        {
            "क्र.सं.": "57.",
            "पुस्तकों के नाम": "बीसवीं शदी का इतिहास तथा अन्य कविताएं",
            "लेखक/संपादक": "वी.के. हरिहरन उण्णित्तान",
            "प्रकाशक": "साहित्य भंडार, इलाहाबाद",
            "वर्ष": "2012",
            "मूल्य": "200/-"
        },
        {
            "क्र.सं.": "58.",
            "पुस्तकों के नाम": "हिंदी देवनागरी लिपि और यूनिकोड",
            "लेखक/संपादक": "जगदीप सिंह दाँगी",
            "प्रकाशक": "म.गा.अं.हि.वि., वर्धा",
            "वर्ष": "2012",
            "मूल्य": "20/-"
        },
        {
            "क्र.सं.": "59.",
            "पुस्तकों के नाम": "भारतीय डास्पोरा: विविधि आयाम",
            "लेखक/संपादक": "...........................",
            "प्रकाशक": "राजकमल प्रकाशन",
            "वर्ष": "2013",
            "मूल्य": "350/-"
        },
        {
            "क्र.सं.": "60.",
            "पुस्तकों के नाम": "वर्धा हिंदी शब्दकोश",
            "लेखक/संपादक": "राम प्रकाश सक्सेना",
            "प्रकाशक": "भारतीय ज्ञानपीठ",
            "वर्ष": "2013",
            "मूल्य": "1000/-"
        },
        {
            "क्र.सं.": "61",
            "पुस्तकों के नाम": "हिंदी समाज विज्ञान विश्वकोश (छ: खंड)",
            "लेखक/संपादक": "अभय कुमार दुबे",
            "प्रकाशक": "राजकमल प्रकाशन",
            "वर्ष": "2013",
            "मूल्य": "6000/-"
        },
        {
            "क्र.सं.": ".62.",
            "पुस्तकों के नाम": "गांधी चिंतन",
            "लेखक/संपादक": "डॉ. नृपेन्द्र प्रसाद मोदी",
            "प्रकाशक": "नयी किताब, दिल्ली",
            "वर्ष": "2014",
            "मूल्य": "250/-"
        }
    ]
}